<?xml version="1.0" encoding="utf-8"?>
<svg xmlns="http://www.w3.org/2000/svg" xmlns:xlink="http://www.w3.org/1999/xlink" style="margin: auto; background: transparent; display: block; shape-rendering: auto; animation-play-state: running; animation-delay: 0s;" width="200px" height="200px" viewBox="0 0 100 100" preserveAspectRatio="xMidYMid">
<circle cx="84" cy="50" r="10" fill="#ffffff" style="animation-play-state: running; animation-delay: 0s;">
    <animate attributeName="r" repeatCount="indefinite" dur="0.25s" calcMode="spline" keyTimes="0;1" values="10;0" keySplines="0 0.5 0.5 1" begin="0s" style="animation-play-state: running; animation-delay: 0s;"></animate>
    <animate attributeName="fill" repeatCount="indefinite" dur="1s" calcMode="discrete" keyTimes="0;0.25;0.5;0.75;1" values="#ffffff;#ffffff;#ffffff;#ffffff;#ffffff" begin="0s" style="animation-play-state: running; animation-delay: 0s;"></animate>
</circle><circle cx="16" cy="50" r="10" fill="#ffffff" style="animation-play-state: running; animation-delay: 0s;">
  <animate attributeName="r" repeatCount="indefinite" dur="1s" calcMode="spline" keyTimes="0;0.25;0.5;0.75;1" values="0;0;10;10;10" keySplines="0 0.5 0.5 1;0 0.5 0.5 1;0 0.5 0.5 1;0 0.5 0.5 1" begin="0s" style="animation-play-state: running; animation-delay: 0s;"></animate>
  <animate attributeName="cx" repeatCount="indefinite" dur="1s" calcMode="spline" keyTimes="0;0.25;0.5;0.75;1" values="16;16;16;50;84" keySplines="0 0.5 0.5 1;0 0.5 0.5 1;0 0.5 0.5 1;0 0.5 0.5 1" begin="0s" style="animation-play-state: running; animation-delay: 0s;"></animate>
</circle><circle cx="50" cy="50" r="10" fill="#ffffff" style="animation-play-state: running; animation-delay: 0s;">
  <animate attributeName="r" repeatCount="indefinite" dur="1s" calcMode="spline" keyTimes="0;0.25;0.5;0.75;1" values="0;0;10;10;10" keySplines="0 0.5 0.5 1;0 0.5 0.5 1;0 0.5 0.5 1;0 0.5 0.5 1" begin="-0.25s" style="animation-play-state: running; animation-delay: 0s;"></animate>
  <animate attributeName="cx" repeatCount="indefinite" dur="1s" calcMode="spline" keyTimes="0;0.25;0.5;0.75;1" values="16;16;16;50;84" keySplines="0 0.5 0.5 1;0 0.5 0.5 1;0 0.5 0.5 1;0 0.5 0.5 1" begin="-0.25s" style="animation-play-state: running; animation-delay: 0s;"></animate>
</circle><circle cx="84" cy="50" r="10" fill="#ffffff" style="animation-play-state: running; animation-delay: 0s;">
  <animate attributeName="r" repeatCount="indefinite" dur="1s" calcMode="spline" keyTimes="0;0.25;0.5;0.75;1" values="0;0;10;10;10" keySplines="0 0.5 0.5 1;0 0.5 0.5 1;0 0.5 0.5 1;0 0.5 0.5 1" begin="-0.5s" style="animation-play-state: running; animation-delay: 0s;"></animate>
  <animate attributeName="cx" repeatCount="indefinite" dur="1s" calcMode="spline" keyTimes="0;0.25;0.5;0.75;1" values="16;16;16;50;84" keySplines="0 0.5 0.5 1;0 0.5 0.5 1;0 0.5 0.5 1;0 0.5 0.5 1" begin="-0.5s" style="animation-play-state: running; animation-delay: 0s;"></animate>
</circle><circle cx="16" cy="50" r="10" fill="#ffffff" style="animation-play-state: running; animation-delay: 0s;">
  <animate attributeName="r" repeatCount="indefinite" dur="1s" calcMode="spline" keyTimes="0;0.25;0.5;0.75;1" values="0;0;10;10;10" keySplines="0 0.5 0.5 1;0 0.5 0.5 1;0 0.5 0.5 1;0 0.5 0.5 1" begin="-0.75s" style="animation-play-state: running; animation-delay: 0s;"></animate>
  <animate attributeName="cx" repeatCount="indefinite" dur="1s" calcMode="spline" keyTimes="0;0.25;0.5;0.75;1" values="16;16;16;50;84" keySplines="0 0.5 0.5 1;0 0.5 0.5 1;0 0.5 0.5 1;0 0.5 0.5 1" begin="-0.75s" style="animation-play-state: running; animation-delay: 0s;"></animate>
</circle>
<!-- [ldio] generated by https://loading.io/ --></svg>